[
    {
        "id" : "de.grogra.xl.impl",
        "name" : "XL-Impl",
        "description" : "XL-Impl contains the base implementation of the XL interfaces.",
        "helpUrl": "https://gitlab.com/grogra/groimp/",
        "vendor": "de.grogra",
        "mainClass": "",
        "versions" : {
            "2.1.2" : {
                "downloadUrl" : "https://gitlab.com/grogra/groimp/-/package_files/105114358/download",
                "libs" : {
                },
                "depends" : {
                	"de.grogra.xl":"2.1.2"
                }
            },
            "2.1.2" : {
                "downloadUrl" : "https://gitlab.com/grogra/groimp/-/package_files/122393033/download",
                "libs" : {
                },
                "depends" : {
                	"de.grogra.xl":"2.1.3"
                }
            }
        }
    }
]

