[
    {
        "id" : "de.grogra.imp3d",
        "name" : "IMP-3D",
        "description" : "IMP-3D plays a central role in the management of GroIMP's object in the scene. It defines node classes for all kinds of 3D geometry from primitives like points, spheres and boxes to complex objects like NURBS surfaces and polygon meshes. Cameras, light sources and sky objects are defined, and physically valid shaders can be constructed from procedural textures and images. This plug-in also provides a 3D view based on wireframe, and manipulation tools for translation, rotation and scaling.",
        "helpUrl": "https://gitlab.com/grogra/groimp/",
        "vendor": "de.grogra",
        "mainClass": "",
        "versions" : {
            "2.1.2" : {
                "downloadUrl" : "https://gitlab.com/grogra/groimp/-/package_files/105114384/download",
                "libs" : {
                },
                "depends" : {
                    "de.grogra.imp":"2.1.2",
                    "de.grogra.ray":"2.1.2",
                    "de.grogra.xl.impl":"2.1.2"
                }
            },
            "2.1.3" : {
                "downloadUrl" : "https://gitlab.com/grogra/groimp/-/package_files/122393047/download",
                "libs" : {
                },
                "depends" : {
                    "de.grogra.imp":"2.1.3",
                    "de.grogra.ray":"2.1.2",
                    "de.grogra.xl.impl":"2.1.2"
                }
            }
        }
    }
]

